amplitude=100
bkgd_bright=100
avg_size=8
decay=80
delay=50
nrml_ofst=0.040000
nrml_scl=0.500000
fltr_const=0.400000
window_mode=3
bkgd_mode=3
frgd_mode=15
single_color_mode=11
avg_mode=0
anim_speed=100.000000
reactive_bkgd=0
silent_bkgd=1
background_timeout=120
audio_device_idx=0